{
  "project_info": {
    "project_number": "303965902397",
    "firebase_url": "https://pong-c0b66.firebaseio.com",
    "project_id": "pong-c0b66",
    "storage_bucket": "pong-c0b66.appspot.com"
  },
  "client": [
    {
      "client_info": {
        "mobilesdk_app_id": "1:303965902397:android:b37e1d545b36a173",
        "android_client_info": {
          "package_name": "com.example.pong"
        }
      },
      "oauth_client": [
        {
          "client_id": "303965902397-q1fpjv07eacmoectv8oqfj7c48uq4f5a.apps.googleusercontent.com",
          "client_type": 3
        }
      ],
      "api_key": [
        {
          "current_key": "AIzaSyBqP_PdT7VE0RWYUu4vTth3dTI7SWKNHBo"
        }
      ],
      "services": {
        "analytics_service": {
          "status": 1
        },
        "appinvite_service": {
          "status": 1,
          "other_platform_oauth_client": []
        },
        "ads_service": {
          "status": 2
        }
      }
    }
  ],
  "configuration_version": "1"
}